<?xml version="1.0" encoding="UTF-8" standalone="no"?>
<!-- Created with Inkscape (http://www.inkscape.org/) -->

<svg
   xmlns:dc="http://purl.org/dc/elements/1.1/"
   xmlns:cc="http://creativecommons.org/ns#"
   xmlns:rdf="http://www.w3.org/1999/02/22-rdf-syntax-ns#"
   xmlns:svg="http://www.w3.org/2000/svg"
   xmlns="http://www.w3.org/2000/svg"
   xmlns:sodipodi="http://sodipodi.sourceforge.net/DTD/sodipodi-0.dtd"
   xmlns:inkscape="http://www.inkscape.org/namespaces/inkscape"
   width="210mm"
   height="297mm"
   viewBox="0 0 210 297"
   version="1.1"
   id="svg8"
   inkscape:version="0.92.2 2405546, 2018-03-11"
   sodipodi:docname="tree.svg">
  <defs
     id="defs2" />
  <sodipodi:namedview
     id="base"
     pagecolor="#ffffff"
     bordercolor="#666666"
     borderopacity="1.0"
     inkscape:pageopacity="0.0"
     inkscape:pageshadow="2"
     inkscape:zoom="0.7"
     inkscape:cx="464.17516"
     inkscape:cy="714.18071"
     inkscape:document-units="mm"
     inkscape:current-layer="layer1"
     showgrid="false"
     inkscape:window-width="987"
     inkscape:window-height="1030"
     inkscape:window-x="7"
     inkscape:window-y="43"
     inkscape:window-maximized="1" />
  <metadata
     id="metadata5">
    <rdf:RDF>
      <cc:Work
         rdf:about="">
        <dc:format>image/svg+xml</dc:format>
        <dc:type
           rdf:resource="http://purl.org/dc/dcmitype/StillImage" />
        <dc:title></dc:title>
      </cc:Work>
    </rdf:RDF>
  </metadata>
  <g
     inkscape:label="Layer 1"
     inkscape:groupmode="layer"
     id="layer1">
    <circle
       id="path3713"
       cx="119.44048"
       cy="68.702385"
       r="15.119047"
       style="fill:none;stroke:#434343;stroke-width:1.365;stroke-miterlimit:4;stroke-dasharray:none;stroke-opacity:1"
       inkscape:export-xdpi="199.89423"
       inkscape:export-ydpi="199.89423" />
    <text
       xml:space="preserve"
       style="font-style:normal;font-weight:normal;font-size:26.88643074px;line-height:1.25;font-family:sans-serif;letter-spacing:0px;word-spacing:0px;fill:#000000;fill-opacity:1;stroke:none;stroke-width:0.67216074"
       x="108.07466"
       y="77.222771"
       id="text4522"
       inkscape:export-xdpi="199.89423"
       inkscape:export-ydpi="199.89423"><tspan
         sodipodi:role="line"
         id="tspan4520"
         x="108.07466"
         y="77.222771"
         style="stroke-width:0.67216074">+</tspan></text>
    <circle
       id="path3713-3"
       cx="72.193451"
       cy="125.77679"
       r="15.119047"
       style="fill:none;stroke:#434343;stroke-width:1.365;stroke-miterlimit:4;stroke-dasharray:none;stroke-opacity:1"
       inkscape:export-xdpi="199.89423"
       inkscape:export-ydpi="199.89423" />
    <text
       xml:space="preserve"
       style="font-style:normal;font-weight:normal;font-size:26.88643074px;line-height:1.25;font-family:sans-serif;letter-spacing:0px;word-spacing:0px;fill:#000000;fill-opacity:1;stroke:none;stroke-width:0.67216074"
       x="64.985382"
       y="138.83289"
       id="text4522-6"
       inkscape:export-xdpi="199.89423"
       inkscape:export-ydpi="199.89423"><tspan
         sodipodi:role="line"
         id="tspan4520-7"
         x="64.985382"
         y="138.83289"
         style="stroke-width:0.67216074">*</tspan></text>
    <circle
       id="path3713-3-5"
       cx="161.7738"
       cy="125.77678"
       r="15.119047"
       style="fill:none;stroke:#434343;stroke-width:1.365;stroke-miterlimit:4;stroke-dasharray:none;stroke-opacity:1"
       inkscape:export-xdpi="199.89423"
       inkscape:export-ydpi="199.89423" />
    <circle
       id="path3713-3-6"
       cx="39.498516"
       cy="174.53571"
       r="15.119047"
       style="fill:none;stroke:#434343;stroke-width:1.365;stroke-miterlimit:4;stroke-dasharray:none;stroke-opacity:1"
       inkscape:export-xdpi="199.89423"
       inkscape:export-ydpi="199.89423" />
    <text
       xml:space="preserve"
       style="font-style:normal;font-weight:normal;font-size:26.88643074px;line-height:1.25;font-family:sans-serif;letter-spacing:0px;word-spacing:0px;fill:#000000;fill-opacity:1;stroke:none;stroke-width:0.67216074"
       x="33.046394"
       y="181.16621"
       id="text4522-6-2"
       inkscape:export-xdpi="199.89423"
       inkscape:export-ydpi="199.89423"><tspan
         sodipodi:role="line"
         id="tspan4520-7-9"
         x="33.046394"
         y="181.16621"
         style="stroke-width:0.67216074">𝑥 </tspan></text>
    <circle
       id="path3713-3-5-1"
       cx="101.86459"
       cy="174.91368"
       r="15.119047"
       style="fill:none;stroke:#434343;stroke-width:1.365;stroke-miterlimit:4;stroke-dasharray:none;stroke-opacity:1"
       inkscape:export-xdpi="199.89423"
       inkscape:export-ydpi="199.89423" />
    <text
       xml:space="preserve"
       style="font-style:normal;font-weight:normal;font-size:20.61216545px;line-height:1.25;font-family:sans-serif;letter-spacing:0px;word-spacing:0px;fill:#000000;fill-opacity:1;stroke:none;stroke-width:0.51530409"
       x="166.54794"
       y="125.43333"
       id="text4522-6-2-0"
       transform="scale(0.93680807,1.0674545)"
       inkscape:export-xdpi="199.89423"
       inkscape:export-ydpi="199.89423"><tspan
         sodipodi:role="line"
         id="tspan4520-7-9-9"
         x="166.54794"
         y="125.43333"
         style="stroke-width:0.51530409">𝘣 </tspan></text>
    <text
       xml:space="preserve"
       style="font-style:normal;font-weight:normal;font-size:27.85625648px;line-height:1.25;font-family:sans-serif;letter-spacing:0px;word-spacing:0px;fill:#000000;fill-opacity:1;stroke:none;stroke-width:0.69640636"
       x="97.920227"
       y="176.24077"
       id="text4522-6-2-0-3"
       transform="scale(0.97085862,1.0300161)"
       inkscape:export-xdpi="199.89423"
       inkscape:export-ydpi="199.89423"><tspan
         sodipodi:role="line"
         id="tspan4520-7-9-9-6"
         x="97.920227"
         y="176.24077"
         style="stroke-width:0.69640636">𝑎  </tspan></text>
    <path
       style="fill:none;stroke:#000000;stroke-width:0.965;stroke-linecap:butt;stroke-linejoin:miter;stroke-opacity:1;stroke-miterlimit:4;stroke-dasharray:none"
       d="M 108.85714,79.663689 81.642856,114.05952"
       id="path4642"
       inkscape:connector-curvature="0"
       inkscape:export-xdpi="199.89423"
       inkscape:export-ydpi="199.89423" />
    <path
       style="fill:none;stroke:#000000;stroke-width:0.965;stroke-linecap:butt;stroke-linejoin:miter;stroke-opacity:1;stroke-miterlimit:4;stroke-dasharray:none"
       d="m 128.5119,80.797619 23.8125,32.505951"
       id="path4644"
       inkscape:connector-curvature="0"
       inkscape:export-xdpi="199.89423"
       inkscape:export-ydpi="199.89423" />
    <path
       style="fill:none;stroke:#000000;stroke-width:0.965;stroke-linecap:butt;stroke-linejoin:miter;stroke-opacity:1;stroke-miterlimit:4;stroke-dasharray:none"
       d="M 61.610118,136.73809 46.491072,160.92857"
       id="path4646"
       inkscape:connector-curvature="0"
       inkscape:export-xdpi="199.89423"
       inkscape:export-ydpi="199.89423" />
    <path
       style="fill:none;stroke:#000000;stroke-width:0.965;stroke-linecap:butt;stroke-linejoin:miter;stroke-opacity:1;stroke-miterlimit:4;stroke-dasharray:none"
       d="m 83.532738,136.73809 11.717261,22.67857"
       id="path4648"
       inkscape:connector-curvature="0"
       inkscape:export-xdpi="199.89423"
       inkscape:export-ydpi="199.89423" />
    <circle
       inkscape:export-ydpi="199.89423"
       inkscape:export-xdpi="199.89423"
       style="fill:none;stroke:#434343;stroke-width:1.365;stroke-miterlimit:4;stroke-dasharray:none;stroke-opacity:1"
       r="15.119047"
       cy="68.702385"
       cx="119.44048"
       id="circle4669" />
    <text
       inkscape:export-ydpi="199.89423"
       inkscape:export-xdpi="199.89423"
       id="text4673"
       y="77.222771"
       x="108.07466"
       style="font-style:normal;font-weight:normal;font-size:26.88643074px;line-height:1.25;font-family:sans-serif;letter-spacing:0px;word-spacing:0px;fill:#000000;fill-opacity:1;stroke:none;stroke-width:0.67216074"
       xml:space="preserve"><tspan
         style="stroke-width:0.67216074"
         y="77.222771"
         x="108.07466"
         id="tspan4671"
         sodipodi:role="line">+</tspan></text>
    <circle
       inkscape:export-ydpi="199.89423"
       inkscape:export-xdpi="199.89423"
       style="fill:none;stroke:#434343;stroke-width:1.365;stroke-miterlimit:4;stroke-dasharray:none;stroke-opacity:1"
       r="15.119047"
       cy="125.77679"
       cx="72.193451"
       id="circle4675" />
    <text
       inkscape:export-ydpi="199.89423"
       inkscape:export-xdpi="199.89423"
       id="text4679"
       y="138.83289"
       x="64.985382"
       style="font-style:normal;font-weight:normal;font-size:26.88643074px;line-height:1.25;font-family:sans-serif;letter-spacing:0px;word-spacing:0px;fill:#000000;fill-opacity:1;stroke:none;stroke-width:0.67216074"
       xml:space="preserve"><tspan
         style="stroke-width:0.67216074"
         y="138.83289"
         x="64.985382"
         id="tspan4677"
         sodipodi:role="line">*</tspan></text>
    <circle
       inkscape:export-ydpi="199.89423"
       inkscape:export-xdpi="199.89423"
       style="fill:none;stroke:#434343;stroke-width:1.365;stroke-miterlimit:4;stroke-dasharray:none;stroke-opacity:1"
       r="15.119047"
       cy="125.77678"
       cx="161.7738"
       id="circle4681" />
    <circle
       inkscape:export-ydpi="199.89423"
       inkscape:export-xdpi="199.89423"
       style="fill:none;stroke:#434343;stroke-width:1.365;stroke-miterlimit:4;stroke-dasharray:none;stroke-opacity:1"
       r="15.119047"
       cy="174.53571"
       cx="39.498516"
       id="circle4683" />
    <text
       inkscape:export-ydpi="199.89423"
       inkscape:export-xdpi="199.89423"
       id="text4687"
       y="181.16621"
       x="33.046394"
       style="font-style:normal;font-weight:normal;font-size:26.88643074px;line-height:1.25;font-family:sans-serif;letter-spacing:0px;word-spacing:0px;fill:#000000;fill-opacity:1;stroke:none;stroke-width:0.67216074"
       xml:space="preserve"><tspan
         style="stroke-width:0.67216074"
         y="181.16621"
         x="33.046394"
         id="tspan4685"
         sodipodi:role="line">𝑥 </tspan></text>
    <circle
       inkscape:export-ydpi="199.89423"
       inkscape:export-xdpi="199.89423"
       style="fill:none;stroke:#434343;stroke-width:1.365;stroke-miterlimit:4;stroke-dasharray:none;stroke-opacity:1"
       r="15.119047"
       cy="174.91368"
       cx="101.86459"
       id="circle4689" />
    <text
       inkscape:export-ydpi="199.89423"
       inkscape:export-xdpi="199.89423"
       transform="scale(0.93680807,1.0674545)"
       id="text4693"
       y="125.43333"
       x="166.54794"
       style="font-style:normal;font-weight:normal;font-size:20.61216545px;line-height:1.25;font-family:sans-serif;letter-spacing:0px;word-spacing:0px;fill:#000000;fill-opacity:1;stroke:none;stroke-width:0.51530409"
       xml:space="preserve"><tspan
         style="stroke-width:0.51530409"
         y="125.43333"
         x="166.54794"
         id="tspan4691"
         sodipodi:role="line">𝘣 </tspan></text>
    <text
       inkscape:export-ydpi="199.89423"
       inkscape:export-xdpi="199.89423"
       transform="scale(0.97085862,1.0300161)"
       id="text4697"
       y="176.24077"
       x="97.920227"
       style="font-style:normal;font-weight:normal;font-size:27.85625648px;line-height:1.25;font-family:sans-serif;letter-spacing:0px;word-spacing:0px;fill:#000000;fill-opacity:1;stroke:none;stroke-width:0.69640636"
       xml:space="preserve"><tspan
         style="stroke-width:0.69640636"
         y="176.24077"
         x="97.920227"
         id="tspan4695"
         sodipodi:role="line">𝑎  </tspan></text>
    <path
       inkscape:export-ydpi="199.89423"
       inkscape:export-xdpi="199.89423"
       inkscape:connector-curvature="0"
       id="path4699"
       d="M 108.85714,79.663689 81.642856,114.05952"
       style="fill:none;stroke:#000000;stroke-width:0.965;stroke-linecap:butt;stroke-linejoin:miter;stroke-opacity:1;stroke-miterlimit:4;stroke-dasharray:none" />
    <path
       inkscape:export-ydpi="199.89423"
       inkscape:export-xdpi="199.89423"
       inkscape:connector-curvature="0"
       id="path4701"
       d="m 128.5119,80.797619 23.8125,32.505951"
       style="fill:none;stroke:#000000;stroke-width:0.965;stroke-linecap:butt;stroke-linejoin:miter;stroke-opacity:1;stroke-miterlimit:4;stroke-dasharray:none" />
    <path
       inkscape:export-ydpi="199.89423"
       inkscape:export-xdpi="199.89423"
       inkscape:connector-curvature="0"
       id="path4703"
       d="M 61.610118,136.73809 46.491072,160.92857"
       style="fill:none;stroke:#000000;stroke-width:0.965;stroke-linecap:butt;stroke-linejoin:miter;stroke-opacity:1;stroke-miterlimit:4;stroke-dasharray:none" />
    <path
       inkscape:export-ydpi="199.89423"
       inkscape:export-xdpi="199.89423"
       inkscape:connector-curvature="0"
       id="path4705"
       d="m 83.532738,136.73809 11.717261,22.67857"
       style="fill:none;stroke:#000000;stroke-width:0.965;stroke-linecap:butt;stroke-linejoin:miter;stroke-opacity:1;stroke-miterlimit:4;stroke-dasharray:none" />
  </g>
</svg>
